[
  {
    "name": "eric",
    "photo": "5883.jpeg"
  },
  {
    "name": "eric",
    "photo": "6278.jpeg"
  },
  {
    "name": "eric",
    "photo": "7030.jpeg"
  },
  {
    "name": "eric",
    "photo": "9293.jpeg"
  },
  {
    "name": "eric",
    "photo": "9610.jpeg"
  },
  {
    "name": "eric",
    "photo": "9932.jpeg"
  },
  {
    "name": "eric",
    "photo": "10954.jpeg"
  },
  {
    "name": "eric",
    "photo": "11695.jpeg"
  },
  {
    "name": "eric",
    "photo": "12330.jpeg"
  },
  {
    "name": "eric",
    "photo": "13883.jpeg"
  },
  {
    "name": "eric",
    "photo": "14074.jpeg"
  },
  {
    "name": "eric",
    "photo": "15064.jpeg"
  },
  {
    "name": "eric",
    "photo": "15514.jpeg"
  },
  {
    "name": "eric",
    "photo": "17455.jpeg"
  },
  {
    "name": "eric",
    "photo": "18619.jpeg"
  },
  {
    "name": "eric",
    "photo": "19416.jpeg"
  },
  {
    "name": "eric",
    "photo": "22784.jpeg"
  },
  {
    "name": "eric",
    "photo": "23061.jpeg"
  },
  {
    "name": "eric",
    "photo": "23529.jpeg"
  },
  {
    "name": "eric",
    "photo": "24687.jpeg"
  },
  {
    "name": "eric",
    "photo": "26515.jpeg"
  },
  {
    "name": "eric",
    "photo": "26611.jpeg"
  }
]
